# charts are created__spec_ids{roc$composition;roc$outputs$info_panel}

    Code
      shiny::isolate(exported[[uo]]())
    Output
      $ds
      # A tibble: 200 x 6
         subject_id predictor_parameter predictor_value response_parameter
         <fct>      <fct>                         <dbl> <fct>             
       1 1          A1                            1.57  BinA1             
       2 2          A1                            1.37  BinA1             
       3 3          A1                            0.575 BinA1             
       4 4          A1                            1.95  BinA1             
       5 5          A1                            0.611 BinA1             
       6 6          A1                            0.716 BinA1             
       7 7          A1                            1.86  BinA1             
       8 8          A1                            2.72  BinA1             
       9 9          A1                            1.27  BinA1             
      10 10         A1                            0.578 BinA1             
      # i 190 more rows
      # i 2 more variables: response_value <fct>, group <fct>
      

---

    Code
      shiny::isolate(exported[[uo]]())
    Output
      $ds_list
      $ds_list$roc_curve
      # A tibble: 206 x 9
         predictor_parameter response_parameter group   sensitivity specificity
         <fct>               <fct>              <fct>         <dbl>       <dbl>
       1 A1                  BinA1              ARM A        0                1
       2 A1                  BinA1              ARM B        0                1
       3 A1                  BinA1              PLACEBO      0                1
       4 A2                  BinA1              ARM A        0                1
       5 A2                  BinA1              ARM B        0                1
       6 A2                  BinA1              PLACEBO      0                1
       7 A1                  BinA1              ARM B        0.0588           1
       8 A1                  BinA1              ARM A        0.0625           1
       9 A1                  BinA1              PLACEBO      0.0833           1
      10 A2                  BinA1              PLACEBO      0.0833           1
      # i 196 more rows
      # i 4 more variables: threshold <dbl>, auc <list>, levels <list>,
      #   direction <chr>
…
      $fig_size
      [1] 200
      
      $is_sorted
      [1] TRUE
      

---

    Code
      shiny::isolate(exported[[uo]]())
    Output
      $ds
      # A tibble: 200 x 6
         subject_id predictor_parameter predictor_value response_parameter
         <fct>      <fct>                         <dbl> <fct>             
       1 1          A1                            1.57  BinA1             
       2 2          A1                            1.37  BinA1             
       3 3          A1                            0.575 BinA1             
       4 4          A1                            1.95  BinA1             
       5 5          A1                            0.611 BinA1             
       6 6          A1                            0.716 BinA1             
       7 7          A1                            1.86  BinA1             
       8 8          A1                            2.72  BinA1             
       9 9          A1                            1.27  BinA1             
      10 10         A1                            0.578 BinA1             
      # i 190 more rows
      # i 2 more variables: response_value <fct>, group <fct>
      
      $param_as_cols
      [1] TRUE
      
      $fig_size
      [1] 200
      

---

    Code
      shiny::isolate(exported[[uo]]())
    Output
      $ds
      # A tibble: 200 x 6
         subject_id predictor_parameter predictor_value response_parameter
         <fct>      <fct>                         <dbl> <fct>             
       1 1          A1                            1.57  BinA1             
       2 2          A1                            1.37  BinA1             
       3 3          A1                            0.575 BinA1             
       4 4          A1                            1.95  BinA1             
       5 5          A1                            0.611 BinA1             
       6 6          A1                            0.716 BinA1             
       7 7          A1                            1.86  BinA1             
       8 8          A1                            2.72  BinA1             
       9 9          A1                            1.27  BinA1             
      10 10         A1                            0.578 BinA1             
      # i 190 more rows
      # i 2 more variables: response_value <fct>, group <fct>
      
      $param_as_cols
      [1] TRUE
      
      $fig_size
      [1] 200
      

---

    Code
      shiny::isolate(exported[[uo]]())
    Output
      $ds
      # A tibble: 200 x 6
         subject_id predictor_parameter predictor_value response_parameter
         <fct>      <fct>                         <dbl> <fct>             
       1 1          A1                            1.57  BinA1             
       2 2          A1                            1.37  BinA1             
       3 3          A1                            0.575 BinA1             
       4 4          A1                            1.95  BinA1             
       5 5          A1                            0.611 BinA1             
       6 6          A1                            0.716 BinA1             
       7 7          A1                            1.86  BinA1             
       8 8          A1                            2.72  BinA1             
       9 9          A1                            1.27  BinA1             
      10 10         A1                            0.578 BinA1             
      # i 190 more rows
      # i 2 more variables: response_value <fct>, group <fct>
…
      $param_as_cols
      [1] TRUE
      
      $fig_size
      [1] 200
      

---

    Code
      shiny::isolate(exported[[uo]]())
    Output
      $ds
      # A tibble: 200 x 6
         subject_id predictor_parameter predictor_value response_parameter
         <fct>      <fct>                         <dbl> <fct>             
       1 1          A1                            1.57  BinA1             
       2 2          A1                            1.37  BinA1             
       3 3          A1                            0.575 BinA1             
       4 4          A1                            1.95  BinA1             
       5 5          A1                            0.611 BinA1             
       6 6          A1                            0.716 BinA1             
       7 7          A1                            1.86  BinA1             
       8 8          A1                            2.72  BinA1             
       9 9          A1                            1.27  BinA1             
      10 10         A1                            0.578 BinA1             
      # i 190 more rows
      # i 2 more variables: response_value <fct>, group <fct>
…
      $fig_size
      [1] 200
      
      $sort_alph
      [1] FALSE
      

---

    Code
      shiny::isolate(exported[[uo]]())
    Output
      $ds_list
      $ds_list$roc_curve
      # A tibble: 206 x 9
         predictor_parameter response_parameter group   sensitivity specificity
         <fct>               <fct>              <fct>         <dbl>       <dbl>
       1 A1                  BinA1              ARM A        0                1
       2 A1                  BinA1              ARM B        0                1
       3 A1                  BinA1              PLACEBO      0                1
       4 A2                  BinA1              ARM A        0                1
       5 A2                  BinA1              ARM B        0                1
       6 A2                  BinA1              PLACEBO      0                1
       7 A1                  BinA1              ARM B        0.0588           1
       8 A1                  BinA1              ARM A        0.0625           1
       9 A1                  BinA1              PLACEBO      0.0833           1
      10 A2                  BinA1              PLACEBO      0.0833           1
      # i 196 more rows
      # i 4 more variables: threshold <dbl>, auc <list>, levels <list>,
      #   direction <chr>
…
      
      $sort_alph
      [1] FALSE
      

# charts are created. Ungrouped__spec_ids{roc$composition;roc$outputs$info_panel}

    Code
      shiny::isolate(exported[[uo]]())
    Output
      $ds
      # A tibble: 200 x 6
         subject_id predictor_parameter predictor_value response_parameter
         <fct>      <fct>                         <dbl> <fct>             
       1 1          A1                            1.57  BinA1             
       2 2          A1                            1.37  BinA1             
       3 3          A1                            0.575 BinA1             
       4 4          A1                            1.95  BinA1             
       5 5          A1                            0.611 BinA1             
       6 6          A1                            0.716 BinA1             
       7 7          A1                            1.86  BinA1             
       8 8          A1                            2.72  BinA1             
       9 9          A1                            1.27  BinA1             
      10 10         A1                            0.578 BinA1             
      # i 190 more rows
      # i 2 more variables: response_value <fct>, group <fct>
      

---

    Code
      shiny::isolate(exported[[uo]]())
    Output
      $ds_list
      $ds_list$roc_curve
      # A tibble: 206 x 9
         predictor_parameter response_parameter group   sensitivity specificity
         <fct>               <fct>              <fct>         <dbl>       <dbl>
       1 A1                  BinA1              ARM A        0                1
       2 A1                  BinA1              ARM B        0                1
       3 A1                  BinA1              PLACEBO      0                1
       4 A2                  BinA1              ARM A        0                1
       5 A2                  BinA1              ARM B        0                1
       6 A2                  BinA1              PLACEBO      0                1
       7 A1                  BinA1              ARM B        0.0588           1
       8 A1                  BinA1              ARM A        0.0625           1
       9 A1                  BinA1              PLACEBO      0.0833           1
      10 A2                  BinA1              PLACEBO      0.0833           1
      # i 196 more rows
      # i 4 more variables: threshold <dbl>, auc <list>, levels <list>,
      #   direction <chr>
…
      $fig_size
      [1] 200
      
      $is_sorted
      [1] TRUE
      

---

    Code
      shiny::isolate(exported[[uo]]())
    Output
      $ds
      # A tibble: 200 x 6
         subject_id predictor_parameter predictor_value response_parameter
         <fct>      <fct>                         <dbl> <fct>             
       1 1          A1                            1.57  BinA1             
       2 2          A1                            1.37  BinA1             
       3 3          A1                            0.575 BinA1             
       4 4          A1                            1.95  BinA1             
       5 5          A1                            0.611 BinA1             
       6 6          A1                            0.716 BinA1             
       7 7          A1                            1.86  BinA1             
       8 8          A1                            2.72  BinA1             
       9 9          A1                            1.27  BinA1             
      10 10         A1                            0.578 BinA1             
      # i 190 more rows
      # i 2 more variables: response_value <fct>, group <fct>
      
      $param_as_cols
      [1] TRUE
      
      $fig_size
      [1] 200
      

---

    Code
      shiny::isolate(exported[[uo]]())
    Output
      $ds
      # A tibble: 200 x 6
         subject_id predictor_parameter predictor_value response_parameter
         <fct>      <fct>                         <dbl> <fct>             
       1 1          A1                            1.57  BinA1             
       2 2          A1                            1.37  BinA1             
       3 3          A1                            0.575 BinA1             
       4 4          A1                            1.95  BinA1             
       5 5          A1                            0.611 BinA1             
       6 6          A1                            0.716 BinA1             
       7 7          A1                            1.86  BinA1             
       8 8          A1                            2.72  BinA1             
       9 9          A1                            1.27  BinA1             
      10 10         A1                            0.578 BinA1             
      # i 190 more rows
      # i 2 more variables: response_value <fct>, group <fct>
      
      $param_as_cols
      [1] TRUE
      
      $fig_size
      [1] 200
      

---

    Code
      shiny::isolate(exported[[uo]]())
    Output
      $ds
      # A tibble: 200 x 6
         subject_id predictor_parameter predictor_value response_parameter
         <fct>      <fct>                         <dbl> <fct>             
       1 1          A1                            1.57  BinA1             
       2 2          A1                            1.37  BinA1             
       3 3          A1                            0.575 BinA1             
       4 4          A1                            1.95  BinA1             
       5 5          A1                            0.611 BinA1             
       6 6          A1                            0.716 BinA1             
       7 7          A1                            1.86  BinA1             
       8 8          A1                            2.72  BinA1             
       9 9          A1                            1.27  BinA1             
      10 10         A1                            0.578 BinA1             
      # i 190 more rows
      # i 2 more variables: response_value <fct>, group <fct>
…
      $param_as_cols
      [1] TRUE
      
      $fig_size
      [1] 200
      

---

    Code
      shiny::isolate(exported[[uo]]())
    Output
      $ds
      # A tibble: 200 x 6
         subject_id predictor_parameter predictor_value response_parameter
         <fct>      <fct>                         <dbl> <fct>             
       1 1          A1                            1.57  BinA1             
       2 2          A1                            1.37  BinA1             
       3 3          A1                            0.575 BinA1             
       4 4          A1                            1.95  BinA1             
       5 5          A1                            0.611 BinA1             
       6 6          A1                            0.716 BinA1             
       7 7          A1                            1.86  BinA1             
       8 8          A1                            2.72  BinA1             
       9 9          A1                            1.27  BinA1             
      10 10         A1                            0.578 BinA1             
      # i 190 more rows
      # i 2 more variables: response_value <fct>, group <fct>
…
      $fig_size
      [1] 200
      
      $sort_alph
      [1] FALSE
      

---

    Code
      shiny::isolate(exported[[uo]]())
    Output
      $ds_list
      $ds_list$roc_curve
      # A tibble: 206 x 9
         predictor_parameter response_parameter group   sensitivity specificity
         <fct>               <fct>              <fct>         <dbl>       <dbl>
       1 A1                  BinA1              ARM A        0                1
       2 A1                  BinA1              ARM B        0                1
       3 A1                  BinA1              PLACEBO      0                1
       4 A2                  BinA1              ARM A        0                1
       5 A2                  BinA1              ARM B        0                1
       6 A2                  BinA1              PLACEBO      0                1
       7 A1                  BinA1              ARM B        0.0588           1
       8 A1                  BinA1              ARM A        0.0625           1
       9 A1                  BinA1              PLACEBO      0.0833           1
      10 A2                  BinA1              PLACEBO      0.0833           1
      # i 196 more rows
      # i 4 more variables: threshold <dbl>, auc <list>, levels <list>,
      #   direction <chr>
…
